lab-06
…
mtsamples_tokens <- mtsamples %>%
  unnest_tokens(token, transcription) %>%
  filter(!str_detect(token, "^\\d{1,3}(,\\d{3})*(\\.\\d+)?$")) %>%
  anti_join(stop_words, by = c("token" = "word"))

mtsamples_token_counts <- mtsamples_tokens %>%
  count(medical_specialty, token, sort = TRUE) %>%
  group_by(medical_specialty) %>%
  slice_max(n, n = 5, with_ties = FALSE) %>% 
  ungroup()

mtsamples_token_counts

# A tibble: 200 × 3
   medical_specialty       token         n
   <chr>                   <chr>     <int>
 1 " Allergy / Immunology" history      38
 2 " Allergy / Immunology" noted        23
 3 " Allergy / Immunology" patient      22
 4 " Allergy / Immunology" allergies    21
 5 " Allergy / Immunology" nasal        13
 6 " Autopsy"              left         83
 7 " Autopsy"              inch         59
 8 " Autopsy"              neck         55
 9 " Autopsy"              anterior     47
10 " Autopsy"              body         40
# ℹ 190 more rows
…
