lab-04
…
In this bar graph, we see that the regions with the most states under a population of 10 million are from the Mountain States and New England regions, with 6 states each, and no states with populations above 10 million. The regions that only have one state with a population above 10 million are the Mid-Atlantic, New York Islands, Pacific, and South Central regions. Meanwhile, both the Midwest and Southeast regions have 2 states with a population above 10 million, while the Southeast also has 5 states with a population below 10 million.

6. Use stat_summary to examine mean vaccination rate and death rate by region

covid_means

# A tibble: 52 × 10
   state state_name            pop region_name cases  hosp booster series deaths
   <chr> <chr>               <int> <fct>       <dbl> <dbl>   <dbl>  <dbl>  <dbl>
 1 AK    Alaska             7.32e5 Pacific No…  206.  7.10   1672. 20996.   1.21
 2 AL    Alabama            5.02e6 Southeast    173. 14.8     952. 14759.   3.12
 3 AR    Arkansas           3.01e6 South Cent…  183. 13.4    1186. 16491.   2.95
 4 AZ    Arizona            7.18e6 Pacific      187. 12.8    1388. 19637.   3.02
 5 CA    California         3.95e7 Pacific      136.  7.99   1553. 21732.   1.93
 6 CO    Colorado           5.78e6 Mountain S…  161.  9.87   1909. 21855.   1.85
 7 CT    Connecticut        3.60e6 New England  138.  8.07   1811. 24636.   2.47
 8 DC    District of Colum… 6.90e5 Mid-Atlant…  135. 11.3    1839. 26530.   2.09
 9 DE    Delaware           9.92e5 Mid-Atlant…  175. 10.3    1514. 20748.   2.06
10 FL    Florida            2.16e7 Southeast    178. 14.8    1425. 20090.   2.71
# ℹ 42 more rows
# ℹ 1 more variable: pop_binary <lgl>
…
